{
    "fluentMethods": true,
    "relationships": [],
    "fields": [
        {
            "fieldName": "run",
            "fieldType": "String",
            "fieldValidateRules": [
                "required",
                "pattern"
            ],
            "fieldValidateRulesPattern": "^([0-9]+-[0-9K])$"
        },
        {
            "fieldName": "nombreCompleto",
            "fieldType": "String"
        },
        {
            "fieldName": "fechaNacimiento",
            "fieldType": "LocalDate"
        },
        {
            "fieldName": "sexo",
            "fieldType": "String",
            "fieldValidateRules": [
                "pattern"
            ],
            "fieldValidateRulesPattern": "^(M|F)$"
        },
        {
            "fieldName": "edadAgnos",
            "fieldType": "Integer"
        },
        {
            "fieldName": "edadMeses",
            "fieldType": "Integer"
        },
        {
            "fieldName": "edadDias",
            "fieldType": "Integer"
        },
        {
            "fieldName": "fechaConsulta",
            "fieldType": "LocalDate"
        }
    ],
    "dto": "no",
    "service": "no",
    "entityTableName": "persona",
    "pagination": "pager"
}
